{"failedCount":0,"prefixedPath":"classpath:examples\/feature\/ApiTest.feature","packageQualifiedName":"examples.feature.ApiTest","loopIndex":-1,"relativePath":"examples\/feature\/ApiTest.feature","scenarioResults":[{"sectionIndex":0,"stepResults":[{"result":{"nanos":1569192,"millis":1.569192,"status":"passed"},"step":{"background":true,"line":4,"prefix":"Given","index":0,"text":"url \"https:\/\/reqres.in\""},"stepLog":"01:05:40.598 karate.env system property was: null \n"},{"result":{"nanos":885200,"millis":0.8852,"status":"passed"},"step":{"line":8,"prefix":"And","index":0,"text":"path \"\/api\/users\""}},{"result":{"nanos":68054714,"millis":68.054714,"status":"passed"},"step":{"line":9,"prefix":"And","index":1,"text":"params { page:1 }"}},{"result":{"nanos":829313622,"millis":829.313622,"status":"passed"},"step":{"line":10,"prefix":"When","index":2,"text":"method Get"},"stepLog":"01:05:41.064 request:\n1 > GET https:\/\/reqres.in\/api\/users?page=1\n1 > Host: reqres.in\n1 > Connection: Keep-Alive\n1 > User-Agent: Apache-HttpClient\/4.5.13 (Java\/1.8.0_342)\n1 > Accept-Encoding: gzip,deflate\n\n\n01:05:41.550 response time in milliseconds: 483\n1 < 200\n1 < Date: Thu, 04 Aug 2022 19:35:41 GMT\n1 < Content-Type: application\/json; charset=utf-8\n1 < Transfer-Encoding: chunked\n1 < Connection: keep-alive\n1 < X-Powered-By: Express\n1 < Access-Control-Allow-Origin: *\n1 < Etag: W\/\"3e4-2RLXvr5wTg9YQ6aH95CkYoFNuO8\"\n1 < Via: 1.1 vegur\n1 < Cache-Control: max-age=14400\n1 < CF-Cache-Status: HIT\n1 < Age: 1933\n1 < Expect-CT: max-age=604800, report-uri=\"https:\/\/report-uri.cloudflare.com\/cdn-cgi\/beacon\/expect-ct\"\n1 < Report-To: {\"endpoints\":[{\"url\":\"https:\\\/\\\/a.nel.cloudflare.com\\\/report\\\/v3?s=7a44VHMgBKeU9R9VnD65bnAPmSvZYZpeTX8M76ZJBv%2BUmqeZK2%2Fd7kkfbehnRUuQybsYdjmO8vkzuCGaF1NKhrjSJKelLdQ7knvHKHbm9WBKFhpOLYhzWl%2Bglw%3D%3D\"}],\"group\":\"cf-nel\",\"max_age\":604800}\n1 < NEL: {\"success_fraction\":0,\"report_to\":\"cf-nel\",\"max_age\":604800}\n1 < Vary: Accept-Encoding\n1 < Server: cloudflare\n1 < CF-RAY: 7359bcd49d06793d-AMD\n{\"page\":1,\"per_page\":6,\"total\":12,\"total_pages\":2,\"data\":[{\"id\":1,\"email\":\"george.bluth@reqres.in\",\"first_name\":\"George\",\"last_name\":\"Bluth\",\"avatar\":\"https:\/\/reqres.in\/img\/faces\/1-image.jpg\"},{\"id\":2,\"email\":\"janet.weaver@reqres.in\",\"first_name\":\"Janet\",\"last_name\":\"Weaver\",\"avatar\":\"https:\/\/reqres.in\/img\/faces\/2-image.jpg\"},{\"id\":3,\"email\":\"emma.wong@reqres.in\",\"first_name\":\"Emma\",\"last_name\":\"Wong\",\"avatar\":\"https:\/\/reqres.in\/img\/faces\/3-image.jpg\"},{\"id\":4,\"email\":\"eve.holt@reqres.in\",\"first_name\":\"Eve\",\"last_name\":\"Holt\",\"avatar\":\"https:\/\/reqres.in\/img\/faces\/4-image.jpg\"},{\"id\":5,\"email\":\"charles.morris@reqres.in\",\"first_name\":\"Charles\",\"last_name\":\"Morris\",\"avatar\":\"https:\/\/reqres.in\/img\/faces\/5-image.jpg\"},{\"id\":6,\"email\":\"tracey.ramos@reqres.in\",\"first_name\":\"Tracey\",\"last_name\":\"Ramos\",\"avatar\":\"https:\/\/reqres.in\/img\/faces\/6-image.jpg\"}],\"support\":{\"url\":\"https:\/\/reqres.in\/#support-heading\",\"text\":\"To keep ReqRes free, contributions towards server costs are appreciated!\"}}\n\n"},{"result":{"nanos":24879,"millis":0.024879,"status":"passed"},"step":{"line":11,"prefix":"Then","index":3,"text":"status 200"}}],"line":7,"description":"","durationMillis":899.847607,"failed":false,"tags":["debug"],"executorName":"main","name":"API Test","startTime":1659641740532,"refId":"[1:7]","endTime":1659641741560,"exampleIndex":-1}],"callDepth":0,"name":"testing the API","description":"","resultDate":"2022-08-05 01:05:41 AM","durationMillis":899.847607,"passedCount":1}